…
    Attaching package: 'dplyr'

    The following objects are masked from 'package:stats':

        filter, lag

    The following objects are masked from 'package:base':

        intersect, setdiff, setequal, union

``` r
starwars
```

    # A tibble: 87 × 14
       name     height  mass hair_color skin_color eye_color birth_year sex   gender
       <chr>     <int> <dbl> <chr>      <chr>      <chr>          <dbl> <chr> <chr> 
     1 Luke Sk…    172    77 blond      fair       blue            19   male  mascu…
     2 C-3PO       167    75 <NA>       gold       yellow         112   none  mascu…
     3 R2-D2        96    32 <NA>       white, bl… red             33   none  mascu…
     4 Darth V…    202   136 none       white      yellow          41.9 male  mascu…
     5 Leia Or…    150    49 brown      light      brown           19   fema… femin…
     6 Owen La…    178   120 brown, gr… light      blue            52   male  mascu…
     7 Beru Wh…    165    75 brown      light      blue            47   fema… femin…
     8 R5-D4        97    32 <NA>       white, red red             NA   none  mascu…
     9 Biggs D…    183    84 black      light      brown           24   male  mascu…
    10 Obi-Wan…    182    77 auburn, w… fair       blue-gray       57   male  mascu…
    # ℹ 77 more rows
    # ℹ 5 more variables: homeworld <chr>, species <chr>, films <list>,
    #   vehicles <list>, starships <list>
…
### 6. Нахождеение всех персонажей ниже 170

``` r
starwars %>% 
  filter(height<170) %>%
  select(name, height, species)
```

    # A tibble: 22 × 3
       name                  height species       
       <chr>                  <int> <chr>         
     1 C-3PO                    167 Droid         
     2 R2-D2                     96 Droid         
     3 Leia Organa              150 Human         
     4 Beru Whitesun Lars       165 Human         
     5 R5-D4                     97 Droid         
     6 Yoda                      66 Yoda's species
     7 Mon Mothma               150 Human         
     8 Wicket Systri Warrick     88 Ewok          
     9 Nien Nunb                160 Sullustan     
    10 Watto                    137 Toydarian     
    # ℹ 12 more rows

### 7. Подсчет ИМТ для каждого персонажа

``` r
starwars %>% 
  mutate("IMT" = mass/(height*height)) %>% 
  select(name,IMT)
```

    # A tibble: 87 × 2
       name                   IMT
       <chr>                <dbl>
     1 Luke Skywalker     0.00260
     2 C-3PO              0.00269
     3 R2-D2              0.00347
     4 Darth Vader        0.00333
     5 Leia Organa        0.00218
     6 Owen Lars          0.00379
     7 Beru Whitesun Lars 0.00275
     8 R5-D4              0.00340
     9 Biggs Darklighter  0.00251
    10 Obi-Wan Kenobi     0.00232
    # ℹ 77 more rows
…
    # A tibble: 1 × 2
      eye_color     k
      <chr>     <int>
    1 brown        21

### 11. Подсчет средней длины имени в каждой расе

``` r
starwars %>% 
  group_by(species) %>%
  filter(!is.na(name)) %>%
  summarise(name_length = mean(nchar(name)))
```

    # A tibble: 38 × 2
       species   name_length
       <chr>           <dbl>
     1 Aleena          12   
     2 Besalisk        15   
     3 Cerean          12   
     4 Chagrian        10   
     5 Clawdite        10   
     6 Droid            4.83
     7 Dug              7   
     8 Ewok            21   
     9 Geonosian       17   
    10 Gungan          11.7 
    # ℹ 28 more rows
…
