…
    # A tibble: 1 × 8
      faa   name        lat   lon   alt    tz dst   tzone         
      <chr> <chr>     <dbl> <dbl> <dbl> <dbl> <chr> <chr>         
    1 TEX   Telluride  38.0 -108.  9078    -7 A     America/Denver

### Шаг 10. Какие бортовые номера у самых старых самолетов

``` r
planes %>% arrange(year) %>% select(tailnum)
```

    # A tibble: 3,322 × 1
       tailnum
       <chr>  
     1 N381AA 
     2 N201AA 
     3 N567AA 
     4 N378AA 
     5 N575AA 
     6 N14629 
     7 N615AA 
     8 N425AA 
     9 N383AA 
    10 N364AA 
    # ℹ 3,312 more rows
…
